test/data/integrated.vcd
$date
    Aug  3, 2021  20:12:16
$end
$version
    TOOL:	xmsim(64)	21.05-a001
$end
$timescale
    1 ns
$end

$scope module tb_top $end
$var reg       1 !    clk $end
$var reg       1 "    sclk $end
$var wire      1 #    rst  $end
$var wire      1 $    tx  $end
$var wire      1 %    rx  $end
$var wire      1 &    intr  $end

$scope module ctl $end
$var wire      1 '    clk  $end
$var wire      1 (    sclk  $end
$var reg       1 )    rst $end
$var wire      1 &    intr  $end
$upscope $end


$scope module apb0 $end
$var wire      1 *    pclk  $end
$var wire      1 +    paddr [31] $end
$var wire      1 ,    paddr [30] $end
$var wire      1 -    paddr [29] $end
$var wire      1 .    paddr [28] $end
$var wire      1 /    paddr [27] $end
$var wire      1 0    paddr [26] $end
$var wire      1 1    paddr [25] $end
$var wire      1 2    paddr [24] $end
$var wire      1 3    paddr [23] $end
$var wire      1 4    paddr [22] $end
$var wire      1 5    paddr [21] $end
$var wire      1 6    paddr [20] $end
$var wire      1 7    paddr [19] $end
$var wire      1 8    paddr [18] $end
$var wire      1 9    paddr [17] $end
$var wire      1 :    paddr [16] $end
$var wire      1 ;    paddr [15] $end
$var wire      1 <    paddr [14] $end
$var wire      1 =    paddr [13] $end
$var wire      1 >    paddr [12] $end
$var wire      1 ?    paddr [11] $end
$var wire      1 @    paddr [10] $end
$var wire      1 A    paddr [9] $end
$var wire      1 B    paddr [8] $end
$var wire      1 C    paddr [7] $end
$var wire      1 D    paddr [6] $end
$var wire      1 E    paddr [5] $end
$var wire      1 F    paddr [4] $end
$var wire      1 G    paddr [3] $end
$var wire      1 H    paddr [2] $end
$var wire      1 I    paddr [1] $end
$var wire      1 J    paddr [0] $end
$var wire      1 K    psel  $end
$var wire      1 L    penable  $end
$var wire      1 M    pwrite  $end
$var wire      1 N    prdata [31] $end
$var wire      1 O    prdata [30] $end
$var wire      1 P    prdata [29] $end
$var wire      1 Q    prdata [28] $end
$var wire      1 R    prdata [27] $end
$var wire      1 S    prdata [26] $end
$var wire      1 T    prdata [25] $end
$var wire      1 U    prdata [24] $end
$var wire      1 V    prdata [23] $end
$var wire      1 W    prdata [22] $end
$var wire      1 X    prdata [21] $end
$var wire      1 Y    prdata [20] $end
$var wire      1 Z    prdata [19] $end
$var wire      1 [    prdata [18] $end
$var wire      1 \    prdata [17] $end
$var wire      1 ]    prdata [16] $end
$var wire      1 ^    prdata [15] $end
$var wire      1 _    prdata [14] $end
$var wire      1 `    prdata [13] $end
$var wire      1 a    prdata [12] $end
$var wire      1 b    prdata [11] $end
$var wire      1 c    prdata [10] $end
$var wire      1 d    prdata [9] $end
$var wire      1 e    prdata [8] $end
$var wire      1 f    prdata [7] $end
$var wire      1 g    prdata [6] $end
$var wire      1 h    prdata [5] $end
$var wire      1 i    prdata [4] $end
$var wire      1 j    prdata [3] $end
$var wire      1 k    prdata [2] $end
$var wire      1 l    prdata [1] $end
$var wire      1 m    prdata [0] $end
$var wire      1 n    pwdata [31] $end
$var wire      1 o    pwdata [30] $end
$var wire      1 p    pwdata [29] $end
$var wire      1 q    pwdata [28] $end
$var wire      1 r    pwdata [27] $end
$var wire      1 s    pwdata [26] $end
$var wire      1 t    pwdata [25] $end
$var wire      1 u    pwdata [24] $end
$var wire      1 v    pwdata [23] $end
$var wire      1 w    pwdata [22] $end
$var wire      1 x    pwdata [21] $end
$var wire      1 y    pwdata [20] $end
$var wire      1 z    pwdata [19] $end
$var wire      1 {    pwdata [18] $end
$var wire      1 |    pwdata [17] $end
$var wire      1 }    pwdata [16] $end
$var wire      1 ~    pwdata [15] $end
$var wire      1 !!   pwdata [14] $end
$var wire      1 "!   pwdata [13] $end
$var wire      1 #!   pwdata [12] $end
$var wire      1 $!   pwdata [11] $end
$var wire      1 %!   pwdata [10] $end
$var wire      1 &!   pwdata [9] $end
$var wire      1 '!   pwdata [8] $end
$var wire      1 (!   pwdata [7] $end
$var wire      1 )!   pwdata [6] $end
$var wire      1 *!   pwdata [5] $end
$var wire      1 +!   pwdata [4] $end
$var wire      1 ,!   pwdata [3] $end
$var wire      1 -!   pwdata [2] $end
$var wire      1 .!   pwdata [1] $end
$var wire      1 /!   pwdata [0] $end

$scope clocking mck $end
$var reg      32 0!   paddr [31:0] $end
$var reg       1 1!   psel $end
$var reg       1 2!   penable $end
$var reg       1 3!   pwrite $end
$var reg      32 4!   pwdata [31:0] $end
$var reg      32 5!   prdata [31:0] $end
$upscope $end


$scope clocking sck $end
$var reg      32 6!   paddr [31:0] $end
$var reg       1 7!   psel $end
$var reg       1 8!   penable $end
$var reg       1 9!   pwrite $end
$var reg      32 :!   pwdata [31:0] $end
$var reg      32 ;!   prdata [31:0] $end
$upscope $end


$scope clocking pck $end
$var reg      32 <!   paddr [31:0] $end
$var reg       1 =!   psel $end
$var reg       1 >!   penable $end
$var reg       1 ?!   pwrite $end
$var reg      32 @!   prdata [31:0] $end
$var reg      32 A!   pwdata [31:0] $end
$upscope $end

$upscope $end


$scope module vip0 $end
$var wire      1 B!   clk  $end
$var reg       1 C!   Tx $end
$var wire      1 $    Rx  $end

$scope module tx $end
$var wire      1 B!   clk  $end
$var reg       1 D!   Tx $end
$upscope $end


$scope module rx $end
$var wire      1 B!   clk  $end
$var wire      1 $    Rx  $end
$upscope $end


$scope module tx_mon $end
$var wire      1 B!   clk  $end
$var wire      1 E!   Rx  $end
$upscope $end

$upscope $end


$scope module dut0 $end
$var reg       1 F!   tx $end
$var wire      1 %    rx  $end
$var wire      1 G!   sclk  $end
$var reg       1 H!   intr $end
$var wire      1 I!   clk  $end
$var wire      1 #    rst  $end
$var reg      32 J!   pr_data [31:0] $end
$var reg       1 K!   TxEn $end
$var reg       1 L!   RxEn $end
$var integer  32 M!   TxDepth $end
$var reg       5 N!   TxLWM [4:0] $end
$var integer  32 O!   RxDepth $end
$var reg       5 P!   RxHWM [4:0] $end
$var reg       8 Q!   SYNC [7:0] $end
$var reg       8 R!   ESC [7:0] $end
$var reg       8 S!   IDLE [7:0] $end
$var reg       1 T!   TxEmpty $end
$var reg       1 U!   TxLow $end
$var reg       1 V!   TxFull $end
$var reg       1 W!   RxEmpty $end
$var reg       1 X!   RxHigh $end
$var reg       1 Y!   RxFull $end
$var reg       1 Z!   aligned $end
$var reg       1 [!   SA $end
$var wire      9 \!   IntReq [8:0] $end
$var reg       9 ]!   IntMask [8:0] $end
$var reg       8 ^!   TxByte [7:0] $end
$var reg       1 _!   TxValid $end
$var reg       8 `!   RxByte [7:0] $end
$var reg       1 a!   RxValid $end

$scope begin TX $end

$scope begin unmblk1 $end
$var reg       8 b!   symbol [7:0] $end
$upscope $end

$upscope $end


$scope begin RX $end
$var reg       8 c!   symbol [7:0] $end
$var reg       1 d!   escaped $end
$upscope $end

$upscope $end

$upscope $end

$enddefinitions $end
$dumpvars
x!
x"
x#
0$
x%
0&
x'
x(
x)
x*
z+
z,
z-
z.
z/
z0
z1
z2
z3
z4
z5
z6
z7
z8
z9
z:
z;
z<
z=
z>
z?
z@
zA
zB
zC
zD
zE
zF
zG
zH
zI
zJ
zK
zL
zM
xN
xO
xP
xQ
xR
xS
xT
xU
xV
xW
xX
xY
xZ
x[
x\
x]
x^
x_
x`
xa
xb
xc
xd
xe
xf
xg
xh
xi
xj
xk
xl
xm
zn
zo
zp
zq
zr
zs
zt
zu
zv
zw
zx
zy
zz
z{
z|
z}
z~
z!!
z"!
z#!
z$!
z%!
z&!
z'!
z(!
z)!
z*!
z+!
z,!
z-!
z.!
z/!
bx 0!
x1!
x2!
x3!
bx 4!
bx 5!
bx 6!
x7!
x8!
x9!
bx :!
bx ;!
bx <!
x=!
x>!
x?!
bx @!
bx A!
xB!
xC!
xD!
xE!
0F!
xG!
0H!
xI!
bx J!
xK!
xL!
b100000 M!
bx N!
b100000 O!
bx P!
b10110010 Q!
b11100111 R!
b10000001 S!
xT!
xU!
xV!
xW!
xX!
xY!
0Z!
x[!
bx0xxx0xxx \!
bx ]!
b0 ^!
0_!
b0 `!
0a!
b0 b!
b0 c!
0d!
$end
#100
1)
1#
0D!
0C!
0E!
0%
#300
0!
0"
0G!
0B!
0(
0I!
0*
0'
#850
1!
1I!
1*
1'
0K!
0L!
bz <!
z=!
z>!
z?!
bz A!
bz 6!
z7!
z8!
z9!
bz :!
b1000 N!
b10000 P!
b0 J!
1T!
0V!
1W!
0Y!
bx00x100x1 \!
01!
02!
0L
0K
zm
zl
zk
zj
zi
zh
zg
zf
ze
zd
zc
zb
za
z`
z_
z^
z]
z\
z[
zZ
zY
zX
zW
zV
zU
zT
zS
zR
zQ
zP
zO
zN
#900
0!
0I!
0*
0'
#950
1!
1I!
1*
1'
0=!
0>!
bz @!
07!
08!
bz 5!
1U!
0X!
bx00010011 \!
#1000
0!
0I!
0*
0'
#1050
1!
1I!
1*
1'
#1054
1"
1G!
1B!
1(
#1100
0!
0I!
0*
0'
#1150
1!
1I!
1*
1'
#1200
0!
0I!
0*
0'
#1250
1!
1I!
1*
1'
#1300
0!
0I!
0*
0'
#1304
0"
0G!
0B!
0(
#1350
1!
1I!
1*
1'
#1400
0!
0I!
0*
0'
#1450
1!
1I!
1*
1'
#1500
0!
0I!
0*
0'
#1550
1!
1I!
1*
1'
#1554
1"
1G!
1B!
1(
#1600
0!
0I!
0*
0'
#1650
1!
1I!
1*
1'
#1700
0!
0I!
0*
0'
#1750
1!
1I!
1*
1'
0)
0#
#1800
0!
0I!
0*
0'
#1804
0"
0G!
0B!
0(
1D!
1C!
1E!
1%
#1850
1!
1I!
1*
1'
#1900
0!
0I!
0*
0'
#1950
1!
1I!
1*
1'
#2000
0!
0I!
0*
0'
#2050
1!
1I!
1*
1'
#2054
1"
1G!
1B!
1(
#2100
0!
0I!
0*
0'
#2150
1!
1I!
1*
1'
#2200
0!
0I!
0*
0'
#2250
1!
1I!
1*
1'
#2300
0!
0I!
0*
0'
#2304
0"
0G!
0B!
0(
0D!
0C!
0E!
0%
#2350
1!
1I!
1*
1'
#2400
0!
0I!
0*
0'
#2450
1!
1I!
1*
1'
#2500
0!
0I!
0*
0'
#2550
1!
1I!
1*
1'
#2554
1"
1G!
1B!
1(
#2600
0!
0I!
0*
0'
#2650
1!
1I!
1*
1'
#2700
0!
0I!
0*
0'
#2750
1!
1I!
1*
1'
b0 0!
11!
13!
b100010011 4!
0n
0o
0p
0q
0r
0s
0t
0u
0v
0w
0x
0y
0z
0{
0|
0}
0~
0!!
0"!
0#!
0$!
0%!
0&!
1'!
0(!
0)!
0*!
1+!
0,!
0-!
1.!
1/!
1M
1K
0+
0,
0-
0.
0/
00
01
02
03
04
05
06
07
08
09
0:
0;
0<
0=
0>
0?
0@
0A
0B
0C
0D
0E
0F
0G
0H
0I
0J
#2800
0!
0I!
0*
0'
#2804
0"
0G!
0B!
0(
1D!
1C!
1E!
1%
#2850
1!
1I!
1*
1'
b0 <!
1=!
1?!
b100010011 A!
b0 6!
17!
19!
b100010011 :!
12!
1L
#2900
0!
0I!
0*
0'
#2950
1!
1I!
1*
1'
0[!
1>!
18!
b10011 \!
01!
02!
0L
0K
#3000
0!
0I!
0*
0'
#3050
1!
1I!
1*
1'
0=!
0>!
07!
08!
#3054
1"
1G!
1B!
1(
#3100
0!
0I!
0*
0'
#3150
1!
1I!
1*
1'
b100 0!
11!
b100000000 4!
0+!
0.!
0/!
1K
1H
#3200
0!
0I!
0*
0'
#3250
1!
1I!
1*
1'
b100 <!
1=!
b100000000 A!
b100 6!
17!
b100000000 :!
12!
1L
#3300
0!
0I!
0*
0'
#3304
0"
0G!
0B!
0(
#3350
1!
1I!
1*
1'
1>!
18!
b100000000 ]!
01!
02!
0L
0K
#3400
0!
0I!
0*
0'
#3450
1!
1I!
1*
1'
0=!
0>!
07!
08!
#3500
0!
0I!
0*
0'
#3550
1!
1I!
1*
1'
b10000 0!
11!
b1 4!
0'!
1/!
1K
1F
0H
#3554
1"
1G!
1B!
1(
#3600
0!
0I!
0*
0'
#3650
1!
1I!
1*
1'
b10000 <!
1=!
b1 A!
b10000 6!
17!
b1 :!
12!
1L
#3700
0!
0I!
0*
0'
#3750
1!
1I!
1*
1'
1>!
18!
1K!
1F!
1$
01!
02!
0L
0K
#3800
0!
0I!
0*
0'
#3804
0"
0G!
0B!
0(
0F!
0D!
0$
0C!
0E!
0%
#3850
1!
1I!
1*
1'
0=!
0>!
07!
08!
#3900
0!
0I!
0*
0'
#3950
1!
1I!
1*
1'
b100000 0!
11!
1K
1E
0F
#4000
0!
0I!
0*
0'
#4050
1!
1I!
1*
1'
b100000 <!
1=!
b100000 6!
17!
12!
1L
#4054
1"
1G!
1B!
1(
#4100
0!
0I!
0*
0'
#4150
1!
1I!
1*
1'
1>!
18!
1L!
01!
02!
0L
0K
#4200
0!
0I!
0*
0'
#4250
1!
1I!
1*
1'
0=!
0>!
07!
08!
#4300
0!
0I!
0*
0'
#4304
0"
0G!
0B!
0(
1F!
1$
#4350
1!
1I!
1*
1'
b100000000 0!
11!
b0 4!
0/!
1K
1B
0E
#4400
0!
0I!
0*
0'
#4450
1!
1I!
1*
1'
b100000000 <!
1=!
b0 A!
b100000000 6!
17!
b0 :!
12!
1L
#4500
0!
0I!
0*
0'
#4550
1!
1I!
1*
1'
1_!
1>!
18!
01!
02!
0L
0K
#4554
1"
1G!
1B!
1(
#4600
0!
0I!
0*
0'
#4650
1!
1I!
1*
1'
0=!
0>!
07!
08!
#4700
0!
0I!
0*
0'
#4750
1!
1I!
1*
1'
#4800
0!
0I!
0*
0'
#4804
0"
0G!
0B!
0(
1D!
1C!
1E!
1%
#4850
1!
1I!
1*
1'
#4900
0!
0I!
0*
0'
#4950
1!
1I!
1*
1'
#5000
0!
0I!
0*
0'
#5050
1!
1I!
1*
1'
#5054
1"
1G!
1B!
1(
b1 c!
#5100
0!
0I!
0*
0'
#5150
1!
1I!
1*
1'
#5200
0!
0I!
0*
0'
#5250
1!
1I!
1*
1'
#5300
0!
0I!
0*
0'
#5304
0"
0G!
0B!
0(
0F!
0D!
0$
0C!
0E!
0%
#5350
1!
1I!
1*
1'
#5400
0!
0I!
0*
0'
#5450
1!
1I!
1*
1'
#5500
0!
0I!
0*
0'
#5550
1!
1I!
1*
1'
#5554
1"
1G!
1B!
1(
b10 c!
#5600
0!
0I!
0*
0'
#5650
1!
1I!
1*
1'
#5700
0!
0I!
0*
0'
#5750
1!
1I!
1*
1'
#5800
0!
0I!
0*
0'
#5804
0"
0G!
0B!
0(
1D!
1C!
1E!
1%
#5850
1!
1I!
1*
1'
#5900
0!
0I!
0*
0'
#5950
1!
1I!
1*
1'
#6000
0!
0I!
0*
0'
#6050
1!
1I!
1*
1'
#6054
1"
1G!
1B!
1(
b101 c!
#6100
0!
0I!
0*
0'
#6150
1!
1I!
1*
1'
#6200
0!
0I!
0*
0'
#6250
1!
1I!
1*
1'
#6300
0!
0I!
0*
0'
#6304
0"
0G!
0B!
0(
1F!
0D!
1$
0C!
0E!
0%
#6350
1!
1I!
1*
1'
#6400
0!
0I!
0*
0'
#6450
1!
1I!
1*
1'
#6500
0!
0I!
0*
0'
#6550
1!
1I!
1*
1'
#6554
1"
1G!
1B!
1(
b1010 c!
#6600
0!
0I!
0*
0'
#6650
1!
1I!
1*
1'
#6700
0!
0I!
0*
0'
#6750
1!
1I!
1*
1'
#6800
0!
0I!
0*
0'
#6804
0"
0G!
0B!
0(
0F!
0$
#6850
1!
1I!
1*
1'
#6900
0!
0I!
0*
0'
#6950
1!
1I!
1*
1'
#7000
0!
0I!
0*
0'
#7050
1!
1I!
1*
1'
#7054
1"
1G!
1B!
1(
b10100 c!
#7100
0!
0I!
0*
0'
#7150
1!
1I!
1*
1'
#7200
0!
0I!
0*
0'
#7250
1!
1I!
1*
1'
#7300
0!
0I!
0*
0'
#7304
0"
0G!
0B!
0(
1F!
1$
#7350
1!
1I!
1*
1'
#7400
0!
0I!
0*
0'
#7450
1!
1I!
1*
1'
#7500
0!
0I!
0*
0'
#7550
1!
1I!
1*
1'
#7554
1"
1G!
1B!
1(
b101000 c!
#7600
0!
0I!
0*
0'
#7650
1!
1I!
1*
1'
#7700
0!
0I!
0*
0'
#7750
1!
1I!
1*
1'
#7800
0!
0I!
0*
0'
#7804
0"
0G!
0B!
0(
0F!
0$
#7850
1!
1I!
1*
1'
#7900
0!
0I!
0*
0'
#7950
1!
1I!
1*
1'
#8000
0!
0I!
0*
0'
#8050
1!
1I!
1*
1'
#8054
1"
1G!
1B!
1(
b1010000 c!
#8100
0!
0I!
0*
0'
#8150
1!
1I!
1*
1'
#8200
0!
0I!
0*
0'
#8250
1!
1I!
1*
1'
#8300
0!
0I!
0*
0'
#8304
0"
0G!
0B!
0(
#8350
1!
1I!
1*
1'
#8400
0!
0I!
0*
0'
#8450
1!
1I!
1*
1'
#8500
0!
0I!
0*
0'
#8550
1!
1I!
1*
1'
#8554
1"
1G!
1B!
1(
b10100000 c!
#8600
0!
0I!
0*
0'
#8650
1!
1I!
1*
1'
#8700
0!
0I!
0*
0'
#8750
1!
1I!
1*
1'
#8800
0!
0I!
0*
0'
#8804
0"
0G!
0B!
0(
#8850
1!
1I!
1*
1'
#8900
0!
0I!
0*
0'
#8950
1!
1I!
1*
1'
#9000
0!
0I!
0*
0'
#9050
1!
1I!
1*
1'
#9054
1"
1G!
1B!
1(
b1000000 c!
#9100
0!
0I!
0*
0'
#9150
1!
1I!
1*
1'
#9200
0!
0I!
0*
0'
#9250
1!
1I!
1*
1'
#9300
0!
0I!
0*
0'
#9304
0"
0G!
0B!
0(
1D!
1C!
1E!
1%
#9350
1!
1I!
1*
1'
#9400
0!
0I!
0*
0'
#9450
1!
1I!
1*
1'
#9500
0!
0I!
0*
0'
#9550
1!
1I!
1*
1'
#9554
1"
1G!
1B!
1(
b10000001 c!
#9600
0!
0I!
0*
0'
#9650
1!
1I!
1*
1'
#9700
0!
0I!
0*
0'
#9750
1!
1I!
1*
1'
#9800
0!
0I!
0*
0'
#9804
0"
0G!
0B!
0(
#9850
1!
1I!
1*
1'
#9900
0!
0I!
0*
0'
#9950
1!
1I!
1*
1'
#10000
0!
0I!
0*
0'
#10050
1!
1I!
1*
1'
#10054
1"
1G!
1B!
1(
b11 c!
#10100
0!
0I!
0*
0'
#10150
1!
1I!
1*
1'
#10200
0!
0I!
0*
0'
#10250
1!
1I!
1*
1'
#10300
0!
0I!
0*
0'
#10304
0"
0G!
0B!
0(
0D!
0C!
0E!
0%
#10350
1!
1I!
1*
1'
#10400
0!
0I!
0*
0'
#10450
1!
1I!
1*
1'
#10500
0!
0I!
0*
0'
#10550
1!
1I!
1*
1'
#10554
1"
1G!
1B!
1(
b110 c!
#10600
0!
0I!
0*
0'
#10650
1!
1I!
1*
1'
#10700
0!
0I!
0*
0'
#10750
1!
1I!
1*
1'
#10800
0!
0I!
0*
0'
#10804
0"
0G!
0B!
0(
1F!
1$
#10850
1!
1I!
1*
1'
#10900
0!
0I!
0*
0'
#10950
1!
1I!
1*
1'
#11000
0!
0I!
0*
0'
#11050
1!
1I!
1*
1'
#11054
1"
1G!
1B!
1(
b1100 c!
#11100
0!
0I!
0*
0'
#11150
1!
1I!
1*
1'
#11200
0!
0I!
0*
0'
#11250
1!
1I!
1*
1'
#11300
0!
0I!
0*
0'
#11304
0"
0G!
0B!
0(
0_!
0F!
0$
#11350
1!
1I!
1*
1'
#11400
0!
0I!
0*
0'
#11450
1!
1I!
1*
1'
#11500
0!
0I!
0*
0'
#11550
1!
1I!
1*
1'
#11554
1"
1G!
1B!
1(
b11000 c!
#11600
0!
0I!
0*
0'
#11650
1!
1I!
1*
1'
#11700
0!
0I!
0*
0'
#11750
1!
1I!
1*
1'
#11800
0!
0I!
0*
0'
#11804
0"
0G!
0B!
0(
#11850
1!
1I!
1*
1'
#11900
0!
0I!
0*
0'
#11950
1!
1I!
1*
1'
#12000
0!
0I!
0*
0'
#12050
1!
1I!
1*
1'
#12054
1"
1G!
1B!
1(
b110000 c!
#12100
0!
0I!
0*
0'
#12150
1!
1I!
1*
1'
#12200
0!
0I!
0*
0'
#12250
1!
1I!
1*
1'
#12300
0!
0I!
0*
0'
#12304
0"
0G!
0B!
0(
#12350
1!
1I!
1*
1'
#12400
0!
0I!
0*
0'
#12450
1!
1I!
1*
1'
#12500
0!
0I!
0*
0'
#12550
1!
1I!
1*
1'
#12554
1"
1G!
1B!
1(
b1100000 c!
#12600
0!
0I!
0*
0'
#12650
1!
1I!
1*
1'
#12700
0!
0I!
0*
0'
#12750
1!
1I!
1*
1'
#12800
0!
0I!
0*
0'
#12804
0"
0G!
0B!
0(
#12850
1!
1I!
1*
1'
#12900
0!
0I!
0*
0'
#12950
1!
1I!
1*
1'
#13000
0!
0I!
0*
0'
#13050
1!
1I!
1*
1'
#13054
1"
1G!
1B!
1(
b11000000 c!
#13100
0!
0I!
0*
0'
#13150
1!
1I!
1*
1'
#13200
0!
0I!
0*
0'
#13250
1!
1I!
1*
1'
#13300
0!
0I!
0*
0'
#13304
0"
0G!
0B!
0(
1D!
1C!
1E!
1%
#13350
1!
1I!
1*
1'
#13400
0!
0I!
0*
0'
#13450
1!
1I!
1*
1'
#13500
0!
0I!
0*
0'
#13550
1!
1I!
1*
1'
#13554
1"
1G!
1B!
1(
b10000001 c!
#13600
0!
0I!
0*
0'
#13650
1!
1I!
1*
1'
#13700
0!
0I!
0*
0'
#13750
1!
1I!
1*
1'
#13800
0!
0I!
0*
0'
#13804
0"
0G!
0B!
0(
#13850
1!
1I!
1*
1'
#13900
0!
0I!
0*
0'
#13950
1!
1I!
1*
1'
#14000
0!
0I!
0*
0'
#14050
1!
1I!
1*
1'
#14054
1"
1G!
1B!
1(
b11 c!
#14100
0!
0I!
0*
0'
#14150
1!
1I!
1*
1'
#14200
0!
0I!
0*
0'
#14250
1!
1I!
1*
1'
#14300
0!
0I!
0*
0'
#14304
0"
0G!
0B!
0(
0D!
0C!
0E!
0%
#14350
1!
1I!
1*
1'
#14400
0!
0I!
0*
0'
#14450
1!
1I!
1*
1'
#14500
0!
0I!
0*
0'
#14550
1!
1I!
1*
1'
#14554
1"
1G!
1B!
1(
b110 c!
#14600
0!
0I!
0*
0'
#14650
1!
1I!
1*
1'
#14700
0!
0I!
0*
0'
#14750
1!
1I!
1*
1'
#14800
0!
0I!
0*
0'
#14804
0"
0G!
0B!
0(
#14850
1!
1I!
1*
1'
#14900
0!
0I!
0*
0'
#14950
1!
1I!
1*
1'
#15000
0!
0I!
0*
0'
#15050
1!
1I!
1*
1'
#15054
1"
1G!
1B!
1(
b1100 c!
#15100
0!
0I!
0*
0'
#15150
1!
1I!
1*
1'
#15200
0!
0I!
0*
0'
#15250
1!
1I!
1*
1'
#15300
0!
0I!
0*
0'
#15304
0"
0G!
0B!
0(
1F!
1$
#15350
1!
1I!
1*
1'
#15400
0!
0I!
0*
0'
#15450
1!
1I!
1*
1'
#15500
0!
0I!
0*
0'
#15550
1!
1I!
1*
1'
#15554
1"
1G!
1B!
1(
b11000 c!
#15600
0!
0I!
0*
0'
#15650
1!
1I!
1*
1'
#15700
0!
0I!
0*
0'
#15750
1!
1I!
1*
1'
#15800
0!
0I!
0*
0'
#15804
0"
0G!
0B!
0(
0F!
0$
#15850
1!
1I!
1*
1'
#15900
0!
0I!
0*
0'
#15950
1!
1I!
1*
1'
#16000
0!
0I!
0*
0'
#16050
1!
1I!
1*
1'
#16054
1"
1G!
1B!
1(
b110000 c!
#16100
0!
0I!
0*
0'
#16150
1!
1I!
1*
1'
#16200
0!
0I!
0*
0'
#16250
1!
1I!
1*
1'
#16300
0!
0I!
0*
0'
#16304
0"
0G!
0B!
0(
#16350
1!
1I!
1*
1'
#16400
0!
0I!
0*
0'
#16450
1!
1I!
1*
1'
#16500
0!
0I!
0*
0'
#16550
1!
1I!
1*
1'
#16554
1"
1G!
1B!
1(
b1100000 c!
#16600
0!
0I!
0*
0'
#16650
1!
1I!
1*
1'
#16700
0!
0I!
0*
0'
#16750
1!
1I!
1*
1'
#16800
0!
0I!
0*
0'
#16804
0"
0G!
0B!
0(
#16850
1!
1I!
1*
1'
#16900
0!
0I!
0*
0'
#16950
1!
1I!
1*
1'
#17000
0!
0I!
0*
0'
#17050
1!
1I!
1*
1'
#17054
1"
1G!
1B!
1(
b11000000 c!
#17100
0!
0I!
0*
0'
#17150
1!
1I!
1*
1'
#17200
0!
0I!
0*
0'
#17250
1!
1I!
1*
1'
#17300
0!
0I!
0*
0'
#17304
0"
0G!
0B!
0(
1D!
1C!
1E!
1%
#17350
1!
1I!
1*
1'
#17400
0!
0I!
0*
0'
#17450
1!
1I!
1*
1'
#17500
0!
0I!
0*
0'
#17550
1!
1I!
1*
1'
#17554
1"
1G!
1B!
1(
b10000001 c!
#17600
0!
0I!
0*
0'
#17650
1!
1I!
1*
1'
#17700
0!
0I!
0*
0'
#17750
1!
1I!
1*
1'
#17800
0!
0I!
0*
0'
#17804
0"
0G!
0B!
0(
#17850
1!
1I!
1*
1'
#17900
0!
0I!
0*
0'
#17950
1!
1I!
1*
1'
#18000
0!
0I!
0*
0'
#18050
1!
1I!
1*
1'
#18054
1"
1G!
1B!
1(
b11 c!
#18100
0!
0I!
0*
0'
#18150
1!
1I!
1*
1'
#18200
0!
0I!
0*
0'
#18250
1!
1I!
1*
1'
#18300
0!
0I!
0*
0'
#18304
0"
0G!
0B!
0(
0D!
0C!
0E!
0%
#18350
1!
1I!
1*
1'
#18400
0!
0I!
0*
0'
#18450
1!
1I!
1*
1'
#18500
0!
0I!
0*
0'
#18550
1!
1I!
1*
1'
#18554
1"
1G!
1B!
1(
b110 c!
#18600
0!
0I!
0*
0'
#18650
1!
1I!
1*
1'
#18700
0!
0I!
0*
0'
#18750
1!
1I!
1*
1'
#18800
0!
0I!
0*
0'
#18804
0"
0G!
0B!
0(
1F!
1$
#18850
1!
1I!
1*
1'
#18900
0!
0I!
0*
0'
#18950
1!
1I!
1*
1'
#19000
0!
0I!
0*
0'
#19050
1!
1I!
1*
1'
#19054
1"
1G!
1B!
1(
b1100 c!
#19100
0!
0I!
0*
0'
#19150
1!
1I!
1*
1'
#19200
0!
0I!
0*
0'
#19250
1!
1I!
1*
1'
#19300
0!
0I!
0*
0'
#19304
0"
0G!
0B!
0(
#19350
1!
1I!
1*
1'
#19400
0!
0I!
0*
0'
#19450
1!
1I!
1*
1'
#19500
0!
0I!
0*
0'
#19550
1!
1I!
1*
1'
#19554
1"
1G!
1B!
1(
b11000 c!
#19600
0!
0I!
0*
0'
#19650
1!
1I!
1*
1'
#19700
0!
0I!
0*
0'
#19750
1!
1I!
1*
1'
#19800
0!
0I!
0*
0'
#19804
0"
0G!
0B!
0(
0F!
0$
#19850
1!
1I!
1*
1'
#19900
0!
0I!
0*
0'
#19950
1!
1I!
1*
1'
#20000
0!
0I!
0*
0'
#20050
1!
1I!
1*
1'
#20054
1"
1G!
1B!
1(
b110000 c!
#20100
0!
0I!
0*
0'
#20150
1!
1I!
1*
1'
#20200
0!
0I!
0*
0'
#20250
1!
1I!
1*
1'
#20300
0!
0I!
0*
0'
#20304
0"
0G!
0B!
0(
#20350
1!
1I!
1*
1'
#20400
0!
0I!
0*
0'
#20450
1!
1I!
1*
1'
#20500
0!
0I!
0*
0'
#20550
1!
1I!
1*
1'
#20554
1"
1G!
1B!
1(
b1100000 c!
#20600
0!
0I!
0*
0'
#20650
1!
1I!
1*
1'
#20700
0!
0I!
0*
0'
#20750
1!
1I!
1*
1'
#20800
0!
0I!
0*
0'
#20804
0"
0G!
0B!
0(
#20850
1!
1I!
1*
1'
#20900
0!
0I!
0*
0'
#20950
1!
1I!
1*
1'
#21000
0!
0I!
0*
0'
#21050
1!
1I!
1*
1'
#21054
1"
1G!
1B!
1(
b11000000 c!
#21100
0!
0I!
0*
0'
#21150
1!
1I!
1*
1'
#21200
0!
0I!
0*
0'
#21250
1!
1I!
1*
1'
#21300
0!
0I!
0*
0'
#21304
0"
0G!
0B!
0(
1D!
1C!
1E!
1%
#21350
1!
1I!
1*
1'
#21400
0!
0I!
0*
0'
#21450
1!
1I!
1*
1'
#21500
0!
0I!
0*
0'
#21550
1!
1I!
1*
1'
#21554
1"
1G!
1B!
1(
b10000001 c!
#21600
0!
0I!
0*
0'
#21650
1!
1I!
1*
1'
#21700
0!
0I!
0*
0'
#21750
1!
1I!
1*
1'
#21800
0!
0I!
0*
0'
#21804
0"
0G!
0B!
0(
#21850
1!
1I!
1*
1'
#21900
0!
0I!
0*
0'
#21950
1!
1I!
1*
1'
#22000
0!
0I!
0*
0'
#22050
1!
1I!
1*
1'
#22054
1"
1G!
1B!
1(
b11 c!
#22100
0!
0I!
0*
0'
#22150
1!
1I!
1*
1'
#22200
0!
0I!
0*
0'
#22250
1!
1I!
1*
1'
#22300
0!
0I!
0*
0'
#22304
0"
0G!
0B!
0(
0D!
0C!
0E!
0%
#22350
1!
1I!
1*
1'
#22400
0!
0I!
0*
0'
#22450
1!
1I!
1*
1'
#22500
0!
0I!
0*
0'
#22550
1!
1I!
1*
1'
#22554
1"
1G!
1B!
1(
b110 c!
#22600
0!
0I!
0*
0'
#22650
1!
1I!
1*
1'
#22700
0!
0I!
0*
0'
#22750
1!
1I!
1*
1'
#22800
0!
0I!
0*
0'
#22804
0"
0G!
0B!
0(
1F!
1$
#22850
1!
1I!
1*
1'
#22900
0!
0I!
0*
0'
#22950
1!
1I!
1*
1'
#23000
0!
0I!
0*
0'
#23050
1!
1I!
1*
1'
#23054
1"
1G!
1B!
1(
b1100 c!
#23100
0!
0I!
0*
0'
#23150
1!
1I!
1*
1'
#23200
0!
0I!
0*
0'
#23250
1!
1I!
1*
1'
#23300
0!
0I!
0*
0'
#23304
0"
0G!
0B!
0(
#23350
1!
1I!
1*
1'
